Blunt-nosed Leopard Lizard Data Analysis: Behavior and Thermoregulation vs Water Physiology
…
# where to cut off n obs?
microhab %>%
  # get only 1 per lizard
  group_by(date_chunks, Serial) %>%
  summarise(n_obs = n()) %>%
  ungroup() %>%
  # How many lizards have each (n) obs?
  group_by(n_obs) %>%
  summarise(n = n())

## `summarise()` has grouped output by 'date_chunks'. You can override using the
## `.groups` argument.

## # A tibble: 26 × 2
##    n_obs     n
##    <int> <int>
##  1     1     5
##  2     2    12
##  3     3     6
##  4     4    18
##  5     5    27
##  6     6    18
##  7     7    13
##  8     8     4
##  9     9     7
## 10    10     9
## # … with 16 more rows
…
